<svg xmlns="http://www.w3.org/2000/svg" width="1024" height="1024"
  style="-ms-transform:rotate(360deg);-webkit-transform:rotate(360deg);transform:rotate(360deg)">
  <path
    d="M637 443H519V309c0-4.4-3.6-8-8-8h-60c-4.4 0-8 3.6-8 8v134H325c-4.4 0-8 3.6-8 8v60c0 4.4 3.6 8 8 8h118v134c0 4.4 3.6 8 8 8h60c4.4 0 8-3.6 8-8V519h118c4.4 0 8-3.6 8-8v-60c0-4.4-3.6-8-8-8zm284 424L775 721c122.1-148.9 113.6-369.5-26-509-148-148.1-388.4-148.1-537 0-148.1 148.6-148.1 389 0 537 139.5 139.6 360.1 148.1 509 26l146 146c3.2 2.8 8.3 2.8 11 0l43-43c2.8-2.7 2.8-7.8 0-11zM696 696c-118.8 118.7-311.2 118.7-430 0-118.7-118.8-118.7-311.2 0-430 118.8-118.7 311.2-118.7 430 0 118.7 118.8 118.7 311.2 0 430z"
    fill="#333333" />
  <path fill="rgba(0, 0, 0, 0)" d="M0 0h1024v1024H0z" />
</svg>